graph 666{
0  [Label = "0 (0.00)"]
99  [Label = "99 (160.56)"]
156  [Label = "156 (192.66)"]
111  [Label = "111 (233.54)"]
182  [Label = "182 (238.62)"]
435  [Label = "435 (248.31)"]
68  [Label = "68 (255.28)"]
486  [Label = "486 (264.62)"]
295  [Label = "295 (267.81)"]
203  [Label = "203 (269.08)"]
54  [Label = "54 (270.11)"]
181  [Label = "181 (270.35)"]
250  [Label = "250 (273.88)"]
318  [Label = "318 (277.47)"]
176  [Label = "176 (278.38)"]
476  [Label = "476 (283.23)"]
422  [Label = "422 (285.25)"]
218  [Label = "218 (290.82)"]
444  [Label = "444 (293.30)"]
31  [Label = "31 (293.41)"]
205  [Label = "205 (303.76)"]
149  [Label = "149 (305.98)"]
277  [Label = "277 (307.32)"]
398  [Label = "398 (308.70)"]
275  [Label = "275 (310.21)"]
366  [Label = "366 (311.57)"]
383  [Label = "383 (312.95)"]
153  [Label = "153 (314.05)"]
271  [Label = "271 (314.98)"]
55  [Label = "55 (315.48)"]
364  [Label = "364 (323.10)"]
142  [Label = "142 (326.11)"]
301  [Label = "301 (326.28)"]
474  [Label = "474 (328.20)"]
377  [Label = "377 (328.29)"]
410  [Label = "410 (328.74)"]
91  [Label = "91 (329.82)"]
446  [Label = "446 (330.19)"]
298  [Label = "298 (331.51)"]
452  [Label = "452 (336.30)"]
193  [Label = "193 (337.89)"]
16  [Label = "16 (339.74)"]
375  [Label = "375 (340.38)"]
88  [Label = "88 (340.53)"]
456  [Label = "456 (341.17)"]
464  [Label = "464 (342.75)"]
360  [Label = "360 (342.99)"]
407  [Label = "407 (343.92)"]
437  [Label = "437 (344.15)"]
385  [Label = "385 (345.37)"]
419  [Label = "419 (345.93)"]
246  [Label = "246 (346.34)"]
447  [Label = "447 (348.26)"]
223  [Label = "223 (348.80)"]
359  [Label = "359 (349.13)"]
2  [Label = "2 (349.64)"]
347  [Label = "347 (350.61)"]
116  [Label = "116 (352.82)"]
21  [Label = "21 (354.27)"]
83  [Label = "83 (355.23)"]
391  [Label = "391 (356.93)"]
278  [Label = "278 (357.21)"]
204  [Label = "204 (358.02)"]
254  [Label = "254 (358.89)"]
105  [Label = "105 (358.91)"]
140  [Label = "140 (359.69)"]
258  [Label = "258 (360.37)"]
239  [Label = "239 (361.09)"]
292  [Label = "292 (361.72)"]
373  [Label = "373 (361.78)"]
52  [Label = "52 (362.39)"]
291  [Label = "291 (362.96)"]
315  [Label = "315 (363.93)"]
453  [Label = "453 (364.68)"]
158  [Label = "158 (365.26)"]
325  [Label = "325 (366.03)"]
308  [Label = "308 (366.29)"]
9  [Label = "9 (367.02)"]
411  [Label = "411 (367.08)"]
307  [Label = "307 (367.93)"]
97  [Label = "97 (367.96)"]
5  [Label = "5 (368.77)"]
42  [Label = "42 (369.08)"]
403  [Label = "403 (370.75)"]
294  [Label = "294 (371.24)"]
127  [Label = "127 (372.44)"]
392  [Label = "392 (372.62)"]
10  [Label = "10 (373.04)"]
477  [Label = "477 (373.47)"]
438  [Label = "438 (374.81)"]
66  [Label = "66 (376.30)"]
134  [Label = "134 (376.70)"]
492  [Label = "492 (376.83)"]
379  [Label = "379 (377.19)"]
235  [Label = "235 (377.90)"]
317  [Label = "317 (378.15)"]
93  [Label = "93 (379.64)"]
147  [Label = "147 (379.81)"]
329  [Label = "329 (380.18)"]
150  [Label = "150 (380.21)"]
18  [Label = "18 (383.31)"]
73  [Label = "73 (383.91)"]
221  [Label = "221 (384.94)"]
190  [Label = "190 (385.10)"]
245  [Label = "245 (385.71)"]
229  [Label = "229 (386.82)"]
188  [Label = "188 (389.19)"]
331  [Label = "331 (389.31)"]
251  [Label = "251 (389.54)"]
242  [Label = "242 (390.18)"]
475  [Label = "475 (390.34)"]
164  [Label = "164 (390.49)"]
122  [Label = "122 (391.73)"]
372  [Label = "372 (391.97)"]
107  [Label = "107 (392.30)"]
174  [Label = "174 (393.04)"]
11  [Label = "11 (393.64)"]
6  [Label = "6 (393.79)"]
357  [Label = "357 (394.16)"]
345  [Label = "345 (395.86)"]
247  [Label = "247 (396.23)"]
262  [Label = "262 (396.31)"]
81  [Label = "81 (396.73)"]
152  [Label = "152 (397.75)"]
358  [Label = "358 (397.85)"]
482  [Label = "482 (397.96)"]
15  [Label = "15 (398.55)"]
180  [Label = "180 (398.90)"]
155  [Label = "155 (399.26)"]
222  [Label = "222 (399.58)"]
7  [Label = "7 (400.02)"]
284  [Label = "284 (400.34)"]
426  [Label = "426 (400.78)"]
110  [Label = "110 (400.91)"]
405  [Label = "405 (401.20)"]
352  [Label = "352 (402.07)"]
121  [Label = "121 (403.22)"]
270  [Label = "270 (403.40)"]
448  [Label = "448 (403.87)"]
350  [Label = "350 (404.00)"]
199  [Label = "199 (404.16)"]
243  [Label = "243 (404.82)"]
346  [Label = "346 (404.88)"]
443  [Label = "443 (405.16)"]
281  [Label = "281 (405.36)"]
137  [Label = "137 (405.61)"]
94  [Label = "94 (405.86)"]
183  [Label = "183 (406.12)"]
263  [Label = "263 (406.26)"]
380  [Label = "380 (406.27)"]
355  [Label = "355 (406.43)"]
232  [Label = "232 (408.02)"]
234  [Label = "234 (408.49)"]
316  [Label = "316 (409.01)"]
211  [Label = "211 (409.03)"]
206  [Label = "206 (409.10)"]
89  [Label = "89 (409.29)"]
266  [Label = "266 (409.65)"]
303  [Label = "303 (410.53)"]
481  [Label = "481 (411.01)"]
418  [Label = "418 (411.40)"]
187  [Label = "187 (412.12)"]
272  [Label = "272 (412.23)"]
170  [Label = "170 (412.52)"]
133  [Label = "133 (412.76)"]
41  [Label = "41 (412.92)"]
342  [Label = "342 (413.09)"]
249  [Label = "249 (413.76)"]
371  [Label = "371 (413.79)"]
310  [Label = "310 (414.07)"]
39  [Label = "39 (414.39)"]
496  [Label = "496 (414.59)"]
432  [Label = "432 (414.83)"]
178  [Label = "178 (415.20)"]
113  [Label = "113 (416.20)"]
257  [Label = "257 (416.63)"]
19  [Label = "19 (416.83)"]
302  [Label = "302 (417.06)"]
412  [Label = "412 (417.66)"]
64  [Label = "64 (417.70)"]
433  [Label = "433 (417.72)"]
144  [Label = "144 (418.31)"]
33  [Label = "33 (418.35)"]
397  [Label = "397 (418.86)"]
451  [Label = "451 (419.18)"]
436  [Label = "436 (419.19)"]
495  [Label = "495 (419.21)"]
29  [Label = "29 (419.32)"]
228  [Label = "228 (419.49)"]
328  [Label = "328 (419.62)"]
369  [Label = "369 (419.79)"]
47  [Label = "47 (420.16)"]
417  [Label = "417 (420.33)"]
125  [Label = "125 (420.43)"]
225  [Label = "225 (420.95)"]
469  [Label = "469 (421.08)"]
165  [Label = "165 (422.06)"]
256  [Label = "256 (422.33)"]
297  [Label = "297 (422.62)"]
175  [Label = "175 (422.76)"]
161  [Label = "161 (423.01)"]
226  [Label = "226 (423.06)"]
261  [Label = "261 (423.40)"]
59  [Label = "59 (424.46)"]
387  [Label = "387 (425.10)"]
71  [Label = "71 (425.11)"]
132  [Label = "132 (425.19)"]
362  [Label = "362 (426.27)"]
480  [Label = "480 (427.64)"]
95  [Label = "95 (428.06)"]
151  [Label = "151 (429.02)"]
255  [Label = "255 (429.10)"]
74  [Label = "74 (429.55)"]
425  [Label = "425 (429.90)"]
276  [Label = "276 (430.64)"]
219  [Label = "219 (430.66)"]
268  [Label = "268 (431.60)"]
86  [Label = "86 (431.89)"]
104  [Label = "104 (432.13)"]
37  [Label = "37 (432.27)"]
101  [Label = "101 (432.44)"]
457  [Label = "457 (432.90)"]
53  [Label = "53 (432.90)"]
130  [Label = "130 (433.11)"]
274  [Label = "274 (433.54)"]
336  [Label = "336 (433.88)"]
157  [Label = "157 (434.36)"]
85  [Label = "85 (434.73)"]
460  [Label = "460 (434.78)"]
361  [Label = "361 (434.95)"]
368  [Label = "368 (435.45)"]
455  [Label = "455 (435.92)"]
396  [Label = "396 (436.54)"]
273  [Label = "273 (437.49)"]
40  [Label = "40 (437.49)"]
100  [Label = "100 (437.52)"]
208  [Label = "208 (438.03)"]
478  [Label = "478 (438.92)"]
420  [Label = "420 (439.05)"]
123  [Label = "123 (439.73)"]
24  [Label = "24 (439.93)"]
472  [Label = "472 (440.57)"]
356  [Label = "356 (441.28)"]
79  [Label = "79 (441.40)"]
445  [Label = "445 (441.72)"]
231  [Label = "231 (441.87)"]
340  [Label = "340 (442.18)"]
189  [Label = "189 (442.33)"]
413  [Label = "413 (442.79)"]
378  [Label = "378 (443.85)"]
192  [Label = "192 (444.74)"]
323  [Label = "323 (445.02)"]
207  [Label = "207 (445.51)"]
349  [Label = "349 (445.54)"]
96  [Label = "96 (445.59)"]
22  [Label = "22 (445.72)"]
376  [Label = "376 (445.96)"]
32  [Label = "32 (446.12)"]
198  [Label = "198 (446.64)"]
404  [Label = "404 (446.79)"]
112  [Label = "112 (446.91)"]
430  [Label = "430 (447.05)"]
36  [Label = "36 (448.00)"]
399  [Label = "399 (448.30)"]
148  [Label = "148 (448.90)"]
382  [Label = "382 (449.51)"]
139  [Label = "139 (449.52)"]
409  [Label = "409 (449.90)"]
103  [Label = "103 (450.26)"]
424  [Label = "424 (450.26)"]
56  [Label = "56 (450.31)"]
343  [Label = "343 (450.98)"]
26  [Label = "26 (451.34)"]
84  [Label = "84 (451.49)"]
14  [Label = "14 (451.98)"]
248  [Label = "248 (452.32)"]
335  [Label = "335 (452.36)"]
129  [Label = "129 (452.39)"]
498  [Label = "498 (452.41)"]
70  [Label = "70 (452.65)"]
44  [Label = "44 (452.69)"]
285  [Label = "285 (453.24)"]
431  [Label = "431 (453.35)"]
415  [Label = "415 (453.38)"]
141  [Label = "141 (454.11)"]
216  [Label = "216 (454.42)"]
186  [Label = "186 (454.78)"]
58  [Label = "58 (454.99)"]
195  [Label = "195 (455.35)"]
489  [Label = "489 (455.64)"]
320  [Label = "320 (456.04)"]
479  [Label = "479 (456.22)"]
46  [Label = "46 (456.32)"]
402  [Label = "402 (456.49)"]
3  [Label = "3 (456.82)"]
459  [Label = "459 (457.75)"]
200  [Label = "200 (457.76)"]
428  [Label = "428 (458.44)"]
264  [Label = "264 (458.82)"]
461  [Label = "461 (458.89)"]
252  [Label = "252 (459.64)"]
394  [Label = "394 (459.75)"]
167  [Label = "167 (460.02)"]
240  [Label = "240 (460.41)"]
49  [Label = "49 (460.46)"]
201  [Label = "201 (460.71)"]
35  [Label = "35 (460.74)"]
210  [Label = "210 (460.74)"]
389  [Label = "389 (460.90)"]
259  [Label = "259 (461.18)"]
497  [Label = "497 (461.31)"]
213  [Label = "213 (461.43)"]
314  [Label = "314 (462.20)"]
63  [Label = "63 (462.23)"]
87  [Label = "87 (462.34)"]
50  [Label = "50 (463.09)"]
388  [Label = "388 (463.13)"]
202  [Label = "202 (463.27)"]
483  [Label = "483 (463.49)"]
184  [Label = "184 (463.50)"]
427  [Label = "427 (463.58)"]
441  [Label = "441 (464.46)"]
217  [Label = "217 (464.53)"]
293  [Label = "293 (465.09)"]
299  [Label = "299 (465.36)"]
17  [Label = "17 (465.50)"]
289  [Label = "289 (465.93)"]
491  [Label = "491 (465.93)"]
300  [Label = "300 (466.12)"]
108  [Label = "108 (466.35)"]
393  [Label = "393 (466.57)"]
306  [Label = "306 (467.66)"]
43  [Label = "43 (468.48)"]
12  [Label = "12 (468.58)"]
146  [Label = "146 (468.78)"]
209  [Label = "209 (468.88)"]
117  [Label = "117 (468.98)"]
244  [Label = "244 (469.33)"]
440  [Label = "440 (469.79)"]
169  [Label = "169 (470.65)"]
408  [Label = "408 (471.01)"]
62  [Label = "62 (471.40)"]
25  [Label = "25 (471.51)"]
279  [Label = "279 (471.63)"]
493  [Label = "493 (471.78)"]
260  [Label = "260 (473.45)"]
374  [Label = "374 (473.69)"]
327  [Label = "327 (473.93)"]
400  [Label = "400 (473.94)"]
13  [Label = "13 (473.95)"]
321  [Label = "321 (474.74)"]
118  [Label = "118 (474.86)"]
466  [Label = "466 (474.90)"]
30  [Label = "30 (475.18)"]
115  [Label = "115 (475.85)"]
309  [Label = "309 (477.11)"]
197  [Label = "197 (477.32)"]
324  [Label = "324 (477.47)"]
488  [Label = "488 (477.88)"]
470  [Label = "470 (478.06)"]
282  [Label = "282 (478.70)"]
45  [Label = "45 (479.12)"]
287  [Label = "287 (479.42)"]
154  [Label = "154 (479.83)"]
429  [Label = "429 (480.58)"]
60  [Label = "60 (480.59)"]
237  [Label = "237 (481.13)"]
80  [Label = "80 (481.74)"]
191  [Label = "191 (482.18)"]
326  [Label = "326 (482.66)"]
423  [Label = "423 (482.95)"]
120  [Label = "120 (483.45)"]
338  [Label = "338 (484.17)"]
8  [Label = "8 (484.44)"]
434  [Label = "434 (485.16)"]
499  [Label = "499 (485.67)"]
473  [Label = "473 (486.05)"]
494  [Label = "494 (486.56)"]
290  [Label = "290 (486.58)"]
265  [Label = "265 (486.59)"]
102  [Label = "102 (487.43)"]
462  [Label = "462 (487.67)"]
381  [Label = "381 (487.90)"]
177  [Label = "177 (488.02)"]
341  [Label = "341 (488.43)"]
28  [Label = "28 (490.12)"]
442  [Label = "442 (490.46)"]
145  [Label = "145 (490.58)"]
114  [Label = "114 (491.30)"]
465  [Label = "465 (491.66)"]
238  [Label = "238 (493.74)"]
230  [Label = "230 (494.04)"]
34  [Label = "34 (494.76)"]
458  [Label = "458 (495.92)"]
471  [Label = "471 (496.55)"]
119  [Label = "119 (497.15)"]
215  [Label = "215 (497.59)"]
98  [Label = "98 (497.79)"]
395  [Label = "395 (497.91)"]
172  [Label = "172 (498.56)"]
92  [Label = "92 (498.74)"]
196  [Label = "196 (498.81)"]
454  [Label = "454 (499.51)"]
65  [Label = "65 (500.22)"]
283  [Label = "283 (500.23)"]
344  [Label = "344 (500.26)"]
416  [Label = "416 (500.69)"]
253  [Label = "253 (501.03)"]
354  [Label = "354 (501.79)"]
468  [Label = "468 (502.55)"]
76  [Label = "76 (504.17)"]
450  [Label = "450 (504.52)"]
490  [Label = "490 (505.03)"]
322  [Label = "322 (505.40)"]
330  [Label = "330 (506.99)"]
236  [Label = "236 (507.20)"]
467  [Label = "467 (507.29)"]
168  [Label = "168 (507.32)"]
233  [Label = "233 (508.45)"]
143  [Label = "143 (508.78)"]
126  [Label = "126 (509.33)"]
171  [Label = "171 (510.13)"]
305  [Label = "305 (510.26)"]
135  [Label = "135 (510.80)"]
214  [Label = "214 (511.33)"]
384  [Label = "384 (511.67)"]
312  [Label = "312 (511.67)"]
406  [Label = "406 (511.76)"]
339  [Label = "339 (512.02)"]
348  [Label = "348 (512.77)"]
109  [Label = "109 (513.53)"]
212  [Label = "212 (514.16)"]
162  [Label = "162 (514.69)"]
38  [Label = "38 (514.77)"]
353  [Label = "353 (515.22)"]
160  [Label = "160 (515.63)"]
267  [Label = "267 (515.88)"]
286  [Label = "286 (516.07)"]
78  [Label = "78 (517.30)"]
48  [Label = "48 (518.13)"]
311  [Label = "311 (519.54)"]
77  [Label = "77 (519.82)"]
185  [Label = "185 (521.27)"]
363  [Label = "363 (522.38)"]
463  [Label = "463 (523.41)"]
220  [Label = "220 (523.67)"]
365  [Label = "365 (524.89)"]
296  [Label = "296 (526.33)"]
439  [Label = "439 (528.13)"]
332  [Label = "332 (528.68)"]
72  [Label = "72 (529.85)"]
288  [Label = "288 (530.10)"]
241  [Label = "241 (530.37)"]
304  [Label = "304 (530.56)"]
319  [Label = "319 (532.52)"]
4  [Label = "4 (534.70)"]
280  [Label = "280 (535.39)"]
1  [Label = "1 (540.19)"]
390  [Label = "390 (540.36)"]
386  [Label = "386 (542.03)"]
61  [Label = "61 (543.32)"]
333  [Label = "333 (544.45)"]
27  [Label = "27 (544.98)"]
367  [Label = "367 (547.61)"]
487  [Label = "487 (548.59)"]
224  [Label = "224 (550.21)"]
23  [Label = "23 (550.22)"]
106  [Label = "106 (551.70)"]
401  [Label = "401 (552.58)"]
227  [Label = "227 (553.14)"]
75  [Label = "75 (555.58)"]
337  [Label = "337 (559.36)"]
194  [Label = "194 (559.65)"]
159  [Label = "159 (560.93)"]
128  [Label = "128 (563.57)"]
67  [Label = "67 (564.98)"]
69  [Label = "69 (564.98)"]
414  [Label = "414 (565.17)"]
269  [Label = "269 (565.35)"]
51  [Label = "51 (567.82)"]
485  [Label = "485 (569.84)"]
57  [Label = "57 (569.92)"]
484  [Label = "484 (575.45)"]
173  [Label = "173 (579.52)"]
90  [Label = "90 (590.64)"]
421  [Label = "421 (590.82)"]
163  [Label = "163 (591.25)"]
334  [Label = "334 (595.75)"]
124  [Label = "124 (596.29)"]
351  [Label = "351 (599.22)"]
449  [Label = "449 (601.91)"]
136  [Label = "136 (609.92)"]
370  [Label = "370 (612.17)"]
82  [Label = "82 (617.26)"]
313  [Label = "313 (621.24)"]
131  [Label = "131 (661.78)"]
179  [Label = "179 (664.58)"]
20  [Label = "20 (665.23)"]
138  [Label = "138 (666.45)"]
166  [Label = "166 (699.37)"]

0--99  [Label = "160.56"]
99--156  [Label = "32.10"]
99--111  [Label = "72.99"]
156--182  [Label = "45.96"]
182--435  [Label = "9.69"]
156--68  [Label = "62.62"]
0--486  [Label = "264.62"]
68--295  [Label = "12.53"]
68--203  [Label = "13.80"]
0--54  [Label = "270.11"]
156--181  [Label = "77.69"]
111--250  [Label = "40.33"]
435--318  [Label = "29.16"]
99--176  [Label = "117.82"]
486--476  [Label = "18.62"]
156--422  [Label = "92.59"]
435--218  [Label = "42.50"]
176--444  [Label = "14.92"]
250--31  [Label = "19.53"]
250--205  [Label = "29.88"]
295--149  [Label = "38.17"]
444--277  [Label = "14.02"]
218--398  [Label = "17.89"]
203--275  [Label = "41.13"]
99--366  [Label = "151.01"]
476--383  [Label = "29.72"]
422--153  [Label = "28.79"]
218--271  [Label = "24.16"]
422--55  [Label = "30.23"]
218--364  [Label = "32.29"]
366--142  [Label = "14.54"]
318--301  [Label = "48.81"]
68--474  [Label = "72.92"]
111--377  [Label = "94.75"]
111--410  [Label = "95.20"]
99--91  [Label = "169.27"]
318--446  [Label = "52.72"]
111--298  [Label = "97.97"]
68--452  [Label = "81.02"]
366--193  [Label = "26.31"]
111--16  [Label = "106.19"]
111--375  [Label = "106.83"]
377--88  [Label = "12.24"]
111--456  [Label = "107.63"]
486--464  [Label = "78.13"]
410--360  [Label = "14.25"]
203--407  [Label = "74.84"]
486--437  [Label = "79.53"]
250--385  [Label = "71.49"]
398--419  [Label = "37.23"]
156--246  [Label = "153.68"]
364--447  [Label = "25.16"]
375--223  [Label = "8.42"]
476--359  [Label = "65.90"]
149--2  [Label = "43.65"]
88--347  [Label = "10.08"]
486--116  [Label = "88.20"]
176--21  [Label = "75.89"]
277--83  [Label = "47.91"]
295--391  [Label = "89.12"]
218--278  [Label = "66.39"]
203--204  [Label = "88.94"]
407--254  [Label = "14.98"]
205--105  [Label = "55.15"]
446--140  [Label = "29.50"]
218--258  [Label = "69.55"]
193--239  [Label = "23.20"]
410--292  [Label = "32.98"]
31--373  [Label = "68.37"]
54--52  [Label = "92.28"]
193--291  [Label = "25.07"]
21--315  [Label = "9.66"]
360--453  [Label = "21.69"]
364--158  [Label = "42.16"]
275--325  [Label = "55.82"]
422--308  [Label = "81.03"]
116--9  [Label = "14.20"]
142--411  [Label = "40.96"]
116--307  [Label = "15.11"]
55--97  [Label = "52.47"]
258--5  [Label = "8.40"]
246--42  [Label = "22.75"]
446--403  [Label = "40.56"]
364--294  [Label = "48.13"]
205--127  [Label = "68.68"]
99--392  [Label = "212.06"]
91--10  [Label = "43.21"]
398--477  [Label = "64.77"]
295--438  [Label = "107.00"]
391--66  [Label = "19.37"]
142--134  [Label = "50.59"]
391--492  [Label = "19.89"]
158--379  [Label = "11.93"]
250--235  [Label = "104.02"]
2--317  [Label = "28.51"]
223--93  [Label = "30.84"]
105--147  [Label = "20.91"]
181--329  [Label = "109.82"]
486--150  [Label = "115.60"]
68--18  [Label = "128.02"]
9--73  [Label = "16.90"]
375--221  [Label = "44.57"]
239--190  [Label = "24.01"]
474--245  [Label = "57.51"]
474--229  [Label = "58.62"]
42--188  [Label = "20.11"]
99--331  [Label = "228.75"]
464--251  [Label = "46.79"]
9--242  [Label = "23.16"]
246--475  [Label = "44.00"]
375--164  [Label = "50.11"]
422--122  [Label = "106.47"]
116--372  [Label = "39.15"]
182--107  [Label = "153.68"]
55--174  [Label = "77.56"]
176--11  [Label = "115.26"]
149--6  [Label = "87.81"]
182--357  [Label = "155.54"]
492--345  [Label = "19.03"]
291--247  [Label = "33.27"]
42--262  [Label = "27.23"]
221--81  [Label = "11.79"]
385--152  [Label = "52.38"]
246--358  [Label = "51.51"]
158--482  [Label = "32.70"]
18--15  [Label = "15.24"]
359--180  [Label = "49.77"]
315--155  [Label = "35.34"]
105--222  [Label = "40.67"]
190--7  [Label = "14.92"]
366--284  [Label = "88.76"]
411--426  [Label = "33.70"]
294--110  [Label = "29.67"]
246--405  [Label = "54.86"]
464--352  [Label = "59.33"]
308--121  [Label = "36.94"]
83--270  [Label = "48.16"]
205--448  [Label = "100.12"]
278--350  [Label = "46.79"]
245--199  [Label = "18.45"]
329--243  [Label = "24.65"]
203--346  [Label = "135.80"]
52--443  [Label = "42.77"]
246--281  [Label = "59.03"]
492--137  [Label = "28.79"]
438--94  [Label = "31.05"]
142--183  [Label = "80.01"]
295--263  [Label = "138.44"]
54--380  [Label = "136.16"]
377--355  [Label = "78.14"]
31--232  [Label = "114.61"]
182--234  [Label = "169.87"]
150--316  [Label = "28.80"]
486--211  [Label = "144.41"]
52--206  [Label = "46.71"]
385--89  [Label = "63.93"]
372--266  [Label = "17.68"]
352--303  [Label = "8.45"]
258--481  [Label = "50.65"]
410--418  [Label = "82.66"]
235--187  [Label = "34.22"]
150--272  [Label = "32.02"]
271--170  [Label = "97.54"]
486--133  [Label = "148.15"]
54--41  [Label = "142.81"]
360--342  [Label = "70.11"]
218--249  [Label = "122.94"]
464--371  [Label = "71.04"]
55--310  [Label = "98.59"]
222--39  [Label = "14.81"]
475--496  [Label = "24.25"]
331--432  [Label = "25.52"]
444--178  [Label = "121.89"]
422--113  [Label = "130.95"]
190--257  [Label = "31.53"]
398--19  [Label = "108.13"]
372--302  [Label = "25.09"]
355--412  [Label = "11.23"]
147--64  [Label = "37.88"]
73--433  [Label = "33.81"]
127--144  [Label = "45.86"]
315--33  [Label = "54.42"]
270--397  [Label = "15.47"]
105--451  [Label = "60.28"]
492--436  [Label = "42.37"]
373--495  [Label = "57.43"]
218--29  [Label = "128.51"]
407--228  [Label = "75.57"]
254--328  [Label = "60.72"]
164--369  [Label = "29.30"]
325--47  [Label = "54.12"]
385--417  [Label = "74.97"]
281--125  [Label = "15.07"]
405--225  [Label = "19.76"]
153--469  [Label = "107.03"]
475--165  [Label = "31.73"]
272--256  [Label = "10.10"]
42--297  [Label = "53.54"]
407--175  [Label = "78.84"]
355--161  [Label = "16.58"]
52--226  [Label = "60.67"]
270--261  [Label = "20.01"]
318--59  [Label = "146.99"]
438--387  [Label = "50.29"]
133--71  [Label = "12.35"]
133--132  [Label = "12.43"]
398--362  [Label = "117.56"]
379--480  [Label = "50.45"]
308--95  [Label = "61.77"]
444--151  [Label = "135.71"]
89--255  [Label = "19.81"]
206--74  [Label = "20.45"]
329--425  [Label = "49.72"]
375--276  [Label = "90.26"]
358--219  [Label = "32.82"]
183--268  [Label = "25.48"]
345--86  [Label = "36.03"]
295--104  [Label = "164.32"]
205--37  [Label = "128.51"]
291--101  [Label = "69.49"]
187--457  [Label = "20.78"]
211--53  [Label = "23.87"]
277--130  [Label = "125.79"]
292--274  [Label = "71.82"]
223--336  [Label = "85.08"]
127--157  [Label = "61.92"]
150--85  [Label = "54.52"]
218--460  [Label = "143.96"]
444--361  [Label = "141.65"]
174--368  [Label = "42.40"]
418--455  [Label = "24.52"]
97--396  [Label = "68.58"]
369--273  [Label = "17.70"]
180--40  [Label = "38.59"]
347--100  [Label = "86.91"]
10--208  [Label = "64.99"]
352--478  [Label = "36.85"]
110--420  [Label = "38.13"]
180--123  [Label = "40.83"]
325--24  [Label = "73.90"]
375--472  [Label = "100.19"]
132--356  [Label = "16.09"]
419--79  [Label = "95.46"]
47--445  [Label = "21.56"]
158--231  [Label = "76.61"]
42--340  [Label = "73.10"]
342--189  [Label = "29.24"]
407--413  [Label = "98.87"]
31--378  [Label = "150.44"]
219--192  [Label = "14.08"]
276--323  [Label = "14.38"]
97--207  [Label = "77.56"]
6--349  [Label = "51.75"]
436--96  [Label = "26.40"]
29--22  [Label = "26.40"]
203--376  [Label = "176.88"]
277--32  [Label = "138.80"]
455--198  [Label = "10.72"]
93--404  [Label = "67.16"]
263--112  [Label = "40.65"]
104--430  [Label = "14.92"]
127--36  [Label = "75.56"]
29--399  [Label = "28.98"]
277--148  [Label = "141.57"]
352--382  [Label = "47.44"]
262--139  [Label = "53.21"]
278--409  [Label = "92.70"]
397--103  [Label = "31.39"]
397--424  [Label = "31.40"]
122--56  [Label = "58.58"]
355--343  [Label = "44.54"]
274--26  [Label = "17.81"]
419--84  [Label = "105.56"]
91--14  [Label = "122.15"]
223--248  [Label = "103.52"]
359--335  [Label = "103.23"]
342--129  [Label = "39.29"]
151--498  [Label = "23.39"]
328--70  [Label = "33.03"]
469--44  [Label = "31.61"]
246--285  [Label = "106.91"]
356--431  [Label = "12.07"]
105--415  [Label = "94.48"]
301--141  [Label = "127.83"]
405--216  [Label = "53.23"]
199--186  [Label = "50.62"]
16--58  [Label = "115.25"]
328--195  [Label = "35.73"]
328--489  [Label = "36.02"]
174--320  [Label = "63.00"]
198--479  [Label = "9.57"]
64--46  [Label = "38.62"]
189--402  [Label = "14.16"]
199--3  [Label = "52.66"]
262--459  [Label = "61.44"]
425--200  [Label = "27.86"]
474--428  [Label = "130.24"]
371--264  [Label = "45.03"]
422--461  [Label = "173.64"]
476--252  [Label = "176.41"]
358--394  [Label = "61.90"]
99--167  [Label = "299.46"]
73--240  [Label = "76.50"]
426--49  [Label = "59.69"]
64--201  [Label = "43.01"]
156--35  [Label = "268.08"]
205--210  [Label = "156.99"]
100--389  [Label = "23.37"]
228--259  [Label = "41.69"]
411--497  [Label = "94.23"]
182--213  [Label = "222.81"]
125--314  [Label = "41.77"]
221--63  [Label = "77.28"]
19--87  [Label = "45.51"]
153--50  [Label = "149.05"]
292--388  [Label = "101.41"]
140--202  [Label = "103.58"]
258--483  [Label = "103.13"]
316--184  [Label = "54.49"]
232--427  [Label = "55.56"]
144--441  [Label = "46.16"]
19--217  [Label = "47.70"]
435--293  [Label = "216.78"]
15--299  [Label = "66.81"]
331--17  [Label = "76.18"]
433--289  [Label = "48.21"]
225--491  [Label = "44.98"]
139--300  [Label = "16.60"]
258--108  [Label = "105.98"]
85--393  [Label = "31.84"]
107--306  [Label = "75.36"]
474--43  [Label = "140.28"]
188--12  [Label = "79.39"]
377--146  [Label = "140.49"]
2--209  [Label = "119.24"]
385--117  [Label = "123.62"]
35--244  [Label = "8.60"]
59--440  [Label = "45.33"]
83--169  [Label = "115.41"]
404--408  [Label = "24.22"]
497--62  [Label = "10.09"]
208--25  [Label = "33.48"]
192--279  [Label = "26.89"]
481--493  [Label = "60.77"]
492--260  [Label = "96.62"]
50--374  [Label = "10.60"]
49--327  [Label = "13.46"]
2--400  [Label = "124.31"]
318--13  [Label = "196.47"]
417--321  [Label = "54.41"]
302--118  [Label = "57.80"]
178--466  [Label = "59.70"]
156--30  [Label = "282.52"]
112--115  [Label = "28.95"]
83--309  [Label = "121.87"]
389--197  [Label = "16.42"]
129--324  [Label = "25.09"]
223--488  [Label = "129.08"]
314--470  [Label = "15.86"]
479--282  [Label = "22.48"]
155--45  [Label = "79.85"]
307--287  [Label = "111.49"]
247--154  [Label = "83.60"]
415--429  [Label = "27.20"]
306--60  [Label = "12.93"]
235--237  [Label = "103.24"]
413--80  [Label = "38.95"]
209--191  [Label = "13.30"]
389--326  [Label = "21.76"]
350--423  [Label = "78.96"]
147--120  [Label = "103.63"]
39--338  [Label = "69.79"]
372--8  [Label = "92.48"]
22--434  [Label = "39.44"]
58--499  [Label = "30.68"]
393--473  [Label = "19.48"]
89--494  [Label = "77.27"]
360--290  [Label = "143.60"]
391--265  [Label = "129.66"]
359--102  [Label = "138.30"]
178--462  [Label = "72.48"]
276--381  [Label = "57.26"]
427--177  [Label = "24.44"]
25--341  [Label = "16.93"]
66--28  [Label = "113.82"]
396--442  [Label = "53.92"]
459--145  [Label = "32.83"]
482--114  [Label = "93.34"]
456--465  [Label = "150.49"]
56--238  [Label = "43.43"]
132--230  [Label = "68.85"]
193--34  [Label = "156.87"]
100--458  [Label = "58.39"]
16--471  [Label = "156.81"]
37--119  [Label = "64.88"]
176--215  [Label = "219.21"]
251--98  [Label = "108.25"]
93--395  [Label = "118.28"]
374--172  [Label = "24.87"]
2--92  [Label = "149.11"]
293--196  [Label = "33.71"]
141--454  [Label = "45.40"]
197--65  [Label = "22.90"]
110--283  [Label = "99.32"]
114--344  [Label = "8.96"]
232--416  [Label = "92.67"]
88--253  [Label = "160.51"]
221--354  [Label = "116.85"]
43--468  [Label = "34.07"]
465--76  [Label = "12.51"]
495--450  [Label = "85.31"]
412--490  [Label = "87.37"]
314--322  [Label = "43.21"]
252--330  [Label = "47.35"]
250--236  [Label = "233.33"]
149--467  [Label = "201.31"]
217--168  [Label = "42.79"]
132--233  [Label = "83.26"]
376--143  [Label = "62.83"]
133--126  [Label = "96.57"]
113--171  [Label = "93.92"]
435--305  [Label = "261.94"]
471--135  [Label = "14.25"]
246--214  [Label = "164.99"]
114--384  [Label = "20.37"]
368--312  [Label = "76.23"]
100--406  [Label = "74.23"]
496--339  [Label = "97.44"]
260--348  [Label = "39.33"]
428--109  [Label = "55.09"]
355--212  [Label = "107.72"]
440--162  [Label = "44.89"]
499--38  [Label = "29.10"]
440--353  [Label = "45.42"]
474--160  [Label = "187.43"]
215--267  [Label = "18.28"]
427--286  [Label = "52.49"]
153--78  [Label = "203.25"]
474--48  [Label = "189.93"]
378--311  [Label = "75.70"]
191--77  [Label = "37.65"]
398--185  [Label = "212.57"]
424--363  [Label = "72.12"]
272--463  [Label = "111.18"]
248--220  [Label = "71.35"]
314--365  [Label = "62.70"]
451--296  [Label = "107.14"]
145--439  [Label = "37.55"]
119--332  [Label = "31.53"]
97--72  [Label = "161.90"]
213--288  [Label = "68.67"]
143--241  [Label = "21.58"]
416--304  [Label = "29.87"]
383--319  [Label = "219.57"]
441--4  [Label = "70.24"]
456--280  [Label = "194.22"]
247--1  [Label = "143.97"]
19--390  [Label = "123.53"]
242--386  [Label = "151.85"]
43--61  [Label = "74.84"]
327--333  [Label = "70.52"]
279--27  [Label = "73.35"]
407--367  [Label = "203.70"]
152--487  [Label = "150.85"]
134--224  [Label = "173.51"]
417--23  [Label = "129.88"]
295--106  [Label = "283.88"]
406--401  [Label = "40.82"]
377--227  [Label = "224.85"]
76--75  [Label = "51.40"]
170--337  [Label = "146.84"]
93--194  [Label = "180.02"]
345--159  [Label = "165.07"]
139--128  [Label = "114.05"]
160--67  [Label = "49.35"]
80--69  [Label = "83.24"]
424--414  [Label = "114.91"]
7--269  [Label = "165.33"]
399--51  [Label = "119.52"]
97--485  [Label = "201.89"]
243--57  [Label = "165.10"]
283--484  [Label = "75.22"]
483--173  [Label = "116.03"]
134--90  [Label = "213.93"]
153--421  [Label = "276.77"]
113--163  [Label = "175.05"]
262--334  [Label = "199.44"]
95--124  [Label = "168.23"]
121--351  [Label = "195.99"]
30--449  [Label = "126.73"]
316--136  [Label = "200.91"]
53--370  [Label = "179.26"]
306--82  [Label = "149.61"]
345--313  [Label = "225.38"]
240--131  [Label = "201.37"]
376--179  [Label = "218.62"]
184--20  [Label = "201.73"]
191--138  [Label = "184.27"]
401--166  [Label = "146.80"]
}
