graph 666{
0  [Label = "0 (0.00)"]
43  [Label = "43 (6.81)"]
52  [Label = "52 (8.77)"]
89  [Label = "89 (10.04)"]
9  [Label = "9 (10.64)"]
12  [Label = "12 (11.03)"]
73  [Label = "73 (14.07)"]
16  [Label = "16 (14.63)"]
8  [Label = "8 (15.09)"]
56  [Label = "56 (15.15)"]
47  [Label = "47 (16.80)"]
41  [Label = "41 (17.47)"]
13  [Label = "13 (17.91)"]
49  [Label = "49 (18.39)"]
46  [Label = "46 (18.74)"]
57  [Label = "57 (19.44)"]
67  [Label = "67 (19.87)"]
63  [Label = "63 (20.21)"]
27  [Label = "27 (20.41)"]
99  [Label = "99 (21.03)"]
97  [Label = "97 (21.34)"]
69  [Label = "69 (21.87)"]
94  [Label = "94 (22.44)"]
21  [Label = "21 (23.74)"]
5  [Label = "5 (23.79)"]
88  [Label = "88 (23.86)"]
58  [Label = "58 (23.94)"]
17  [Label = "17 (24.33)"]
36  [Label = "36 (24.46)"]
51  [Label = "51 (24.48)"]
32  [Label = "32 (24.62)"]
96  [Label = "96 (24.71)"]
87  [Label = "87 (24.77)"]
28  [Label = "28 (25.31)"]
24  [Label = "24 (25.48)"]
77  [Label = "77 (25.56)"]
82  [Label = "82 (25.58)"]
50  [Label = "50 (26.34)"]
31  [Label = "31 (26.41)"]
22  [Label = "22 (26.77)"]
26  [Label = "26 (26.80)"]
62  [Label = "62 (27.24)"]
15  [Label = "15 (27.35)"]
34  [Label = "34 (27.41)"]
1  [Label = "1 (27.79)"]
71  [Label = "71 (27.94)"]
86  [Label = "86 (28.18)"]
68  [Label = "68 (28.36)"]
39  [Label = "39 (28.36)"]
74  [Label = "74 (28.48)"]
95  [Label = "95 (28.95)"]
81  [Label = "81 (29.57)"]
7  [Label = "7 (30.50)"]
20  [Label = "20 (31.10)"]
37  [Label = "37 (31.40)"]
40  [Label = "40 (31.83)"]
23  [Label = "23 (32.11)"]
10  [Label = "10 (32.62)"]
29  [Label = "29 (32.97)"]
84  [Label = "84 (33.06)"]
70  [Label = "70 (33.67)"]
66  [Label = "66 (33.69)"]
79  [Label = "79 (33.70)"]
93  [Label = "93 (33.82)"]
78  [Label = "78 (35.01)"]
30  [Label = "30 (35.19)"]
53  [Label = "53 (35.88)"]
61  [Label = "61 (36.03)"]
59  [Label = "59 (36.05)"]
2  [Label = "2 (36.67)"]
92  [Label = "92 (37.56)"]
80  [Label = "80 (38.09)"]
3  [Label = "3 (38.86)"]
98  [Label = "98 (39.36)"]
35  [Label = "35 (39.98)"]
76  [Label = "76 (40.20)"]
42  [Label = "42 (41.67)"]
25  [Label = "25 (42.56)"]
11  [Label = "11 (42.60)"]
55  [Label = "55 (43.13)"]
19  [Label = "19 (43.56)"]
64  [Label = "64 (43.57)"]
4  [Label = "4 (43.60)"]
91  [Label = "91 (43.73)"]
48  [Label = "48 (44.27)"]
72  [Label = "72 (45.29)"]
14  [Label = "14 (47.21)"]
38  [Label = "38 (47.40)"]
85  [Label = "85 (47.47)"]
44  [Label = "44 (47.69)"]
18  [Label = "18 (47.94)"]
45  [Label = "45 (49.14)"]
60  [Label = "60 (51.56)"]
33  [Label = "33 (51.68)"]
83  [Label = "83 (52.75)"]
90  [Label = "90 (54.19)"]
54  [Label = "54 (54.86)"]
6  [Label = "6 (55.75)"]
65  [Label = "65 (55.99)"]
75  [Label = "75 (62.71)"]

0--43  [Label = "6.81"]
0--52  [Label = "8.77"]
43--89  [Label = "3.23"]
43--9  [Label = "3.83"]
0--12  [Label = "11.03"]
9--73  [Label = "3.43"]
89--16  [Label = "4.58"]
89--8  [Label = "5.05"]
43--56  [Label = "8.33"]
12--47  [Label = "5.77"]
73--41  [Label = "3.39"]
12--13  [Label = "6.88"]
89--49  [Label = "8.35"]
8--46  [Label = "3.65"]
52--57  [Label = "10.67"]
47--67  [Label = "3.06"]
43--63  [Label = "13.39"]
73--27  [Label = "6.34"]
16--99  [Label = "6.41"]
8--97  [Label = "6.25"]
89--69  [Label = "11.82"]
49--94  [Label = "4.05"]
46--21  [Label = "5.00"]
41--5  [Label = "6.32"]
16--88  [Label = "9.23"]
9--58  [Label = "13.30"]
43--17  [Label = "17.52"]
97--36  [Label = "3.11"]
89--51  [Label = "14.44"]
13--32  [Label = "6.71"]
97--96  [Label = "3.36"]
73--87  [Label = "10.70"]
67--28  [Label = "5.45"]
73--24  [Label = "11.41"]
12--77  [Label = "14.52"]
16--82  [Label = "10.96"]
27--50  [Label = "5.93"]
94--31  [Label = "3.97"]
21--22  [Label = "3.03"]
27--26  [Label = "6.39"]
97--62  [Label = "5.90"]
46--15  [Label = "8.61"]
46--34  [Label = "8.67"]
88--1  [Label = "3.93"]
17--71  [Label = "3.61"]
96--86  [Label = "3.48"]
0--68  [Label = "28.36"]
36--39  [Label = "3.90"]
47--74  [Label = "11.68"]
16--95  [Label = "14.33"]
28--81  [Label = "4.26"]
24--7  [Label = "5.01"]
94--20  [Label = "8.66"]
39--37  [Label = "3.04"]
1--40  [Label = "4.05"]
51--23  [Label = "7.62"]
15--10  [Label = "5.27"]
67--29  [Label = "13.11"]
67--84  [Label = "13.19"]
87--70  [Label = "8.89"]
22--66  [Label = "6.92"]
49--79  [Label = "15.30"]
88--93  [Label = "9.96"]
50--78  [Label = "8.67"]
41--30  [Label = "17.73"]
99--53  [Label = "14.85"]
7--61  [Label = "5.53"]
29--59  [Label = "3.08"]
29--2  [Label = "3.69"]
23--92  [Label = "5.46"]
20--80  [Label = "6.99"]
50--3  [Label = "12.52"]
84--98  [Label = "6.30"]
93--35  [Label = "6.16"]
86--76  [Label = "12.01"]
71--42  [Label = "13.74"]
24--25  [Label = "17.08"]
78--11  [Label = "7.58"]
34--55  [Label = "15.72"]
2--19  [Label = "6.89"]
53--64  [Label = "7.69"]
66--4  [Label = "9.91"]
51--91  [Label = "19.25"]
37--48  [Label = "12.87"]
70--72  [Label = "11.62"]
23--14  [Label = "15.10"]
29--38  [Label = "14.43"]
92--85  [Label = "9.91"]
37--44  [Label = "16.29"]
37--18  [Label = "16.54"]
11--45  [Label = "6.55"]
23--60  [Label = "19.46"]
35--33  [Label = "11.70"]
91--83  [Label = "9.02"]
19--90  [Label = "10.64"]
44--54  [Label = "7.17"]
78--6  [Label = "20.73"]
27--65  [Label = "35.58"]
54--75  [Label = "7.85"]
}
