graph 666{
0  [Label = "0 (0.00)"]
8  [Label = "8 (6.77)"]
27  [Label = "27 (9.83)"]
26  [Label = "26 (10.46)"]
19  [Label = "19 (11.34)"]
28  [Label = "28 (11.56)"]
21  [Label = "21 (14.42)"]
14  [Label = "14 (14.47)"]
5  [Label = "5 (15.28)"]
29  [Label = "29 (15.49)"]
11  [Label = "11 (16.15)"]
9  [Label = "9 (16.70)"]
12  [Label = "12 (16.94)"]
7  [Label = "7 (17.19)"]
6  [Label = "6 (17.71)"]
24  [Label = "24 (18.48)"]
13  [Label = "13 (19.95)"]
23  [Label = "23 (20.58)"]
17  [Label = "17 (20.72)"]
3  [Label = "3 (20.84)"]
1  [Label = "1 (20.95)"]
22  [Label = "22 (21.03)"]
20  [Label = "20 (21.51)"]
16  [Label = "16 (22.45)"]
18  [Label = "18 (23.57)"]
25  [Label = "25 (23.67)"]
4  [Label = "4 (24.16)"]
10  [Label = "10 (29.46)"]
2  [Label = "2 (32.45)"]
15  [Label = "15 (32.64)"]

0--8  [Label = "6.77"]
8--27  [Label = "3.06"]
8--26  [Label = "3.69"]
8--19  [Label = "4.57"]
0--28  [Label = "11.56"]
0--21  [Label = "14.42"]
0--14  [Label = "14.47"]
19--5  [Label = "3.94"]
8--29  [Label = "8.71"]
19--11  [Label = "4.81"]
8--9  [Label = "9.93"]
26--12  [Label = "6.48"]
0--7  [Label = "17.19"]
8--6  [Label = "10.93"]
21--24  [Label = "4.06"]
28--13  [Label = "8.39"]
21--23  [Label = "6.16"]
5--17  [Label = "5.44"]
7--3  [Label = "3.64"]
11--1  [Label = "4.80"]
29--22  [Label = "5.55"]
28--20  [Label = "9.95"]
8--16  [Label = "15.68"]
29--18  [Label = "8.09"]
24--25  [Label = "5.19"]
8--4  [Label = "17.38"]
3--10  [Label = "8.62"]
14--2  [Label = "17.98"]
9--15  [Label = "15.94"]
}
