graph 666{
0  [Label = "0 (0.00)"]
1  [Label = "1 (0.00)"]
2  [Label = "2 (0.00)"]
3  [Label = "3 (0.00)"]
4  [Label = "4 (0.00)"]
5  [Label = "5 (0.00)"]
6  [Label = "6 (0.00)"]
7  [Label = "7 (0.00)"]
8  [Label = "8 (0.00)"]
9  [Label = "9 (0.00)"]
10  [Label = "10 (0.00)"]
11  [Label = "11 (0.00)"]
12  [Label = "12 (0.00)"]
13  [Label = "13 (0.00)"]
14  [Label = "14 (0.00)"]
15  [Label = "15 (0.00)"]
16  [Label = "16 (0.00)"]
17  [Label = "17 (0.00)"]
18  [Label = "18 (0.00)"]
19  [Label = "19 (0.00)"]
20  [Label = "20 (0.00)"]
21  [Label = "21 (0.00)"]
22  [Label = "22 (0.00)"]
23  [Label = "23 (0.00)"]
24  [Label = "24 (0.00)"]
25  [Label = "25 (0.00)"]
26  [Label = "26 (0.00)"]
27  [Label = "27 (0.00)"]
28  [Label = "28 (0.00)"]
29  [Label = "29 (0.00)"]
30  [Label = "30 (0.00)"]
31  [Label = "31 (0.00)"]
32  [Label = "32 (0.00)"]
33  [Label = "33 (0.00)"]
34  [Label = "34 (0.00)"]
35  [Label = "35 (0.00)"]
36  [Label = "36 (0.00)"]
37  [Label = "37 (0.00)"]
38  [Label = "38 (0.00)"]
39  [Label = "39 (0.00)"]
40  [Label = "40 (0.00)"]
41  [Label = "41 (0.00)"]
42  [Label = "42 (0.00)"]
43  [Label = "43 (0.00)"]
44  [Label = "44 (0.00)"]
45  [Label = "45 (0.00)"]
46  [Label = "46 (0.00)"]
47  [Label = "47 (0.00)"]
48  [Label = "48 (0.00)"]
49  [Label = "49 (0.00)"]
50  [Label = "50 (0.00)"]
51  [Label = "51 (0.00)"]
52  [Label = "52 (0.00)"]
53  [Label = "53 (0.00)"]
54  [Label = "54 (0.00)"]
55  [Label = "55 (0.00)"]
56  [Label = "56 (0.00)"]
57  [Label = "57 (0.00)"]
58  [Label = "58 (0.00)"]
59  [Label = "59 (0.00)"]
60  [Label = "60 (0.00)"]
61  [Label = "61 (0.00)"]
62  [Label = "62 (0.00)"]
63  [Label = "63 (0.00)"]
64  [Label = "64 (0.00)"]
65  [Label = "65 (0.00)"]
66  [Label = "66 (0.00)"]
67  [Label = "67 (0.00)"]
68  [Label = "68 (0.00)"]
69  [Label = "69 (0.00)"]
70  [Label = "70 (0.00)"]
71  [Label = "71 (0.00)"]
72  [Label = "72 (0.00)"]
73  [Label = "73 (0.00)"]
74  [Label = "74 (0.00)"]
75  [Label = "75 (0.00)"]
76  [Label = "76 (0.00)"]
77  [Label = "77 (0.00)"]
78  [Label = "78 (0.00)"]
79  [Label = "79 (0.00)"]
80  [Label = "80 (0.00)"]
81  [Label = "81 (0.00)"]
82  [Label = "82 (0.00)"]
83  [Label = "83 (0.00)"]
84  [Label = "84 (0.00)"]
85  [Label = "85 (0.00)"]
86  [Label = "86 (0.00)"]
87  [Label = "87 (0.00)"]
88  [Label = "88 (0.00)"]
89  [Label = "89 (0.00)"]
90  [Label = "90 (0.00)"]
91  [Label = "91 (0.00)"]
92  [Label = "92 (0.00)"]
93  [Label = "93 (0.00)"]
94  [Label = "94 (0.00)"]
95  [Label = "95 (0.00)"]
96  [Label = "96 (0.00)"]
97  [Label = "97 (0.00)"]
98  [Label = "98 (0.00)"]
99  [Label = "99 (0.00)"]

61--30  [Label = "0.18"]
94--21  [Label = "0.22"]
10--76  [Label = "0.74"]
24--78  [Label = "0.08"]
47--79  [Label = "0.83"]
23--73  [Label = "0.08"]
64--40  [Label = "0.70"]
55--93  [Label = "0.39"]
6--62  [Label = "0.09"]
55--52  [Label = "0.66"]
62--71  [Label = "0.60"]
10--7  [Label = "0.62"]
45--78  [Label = "0.71"]
17--69  [Label = "0.21"]
41--10  [Label = "0.49"]
6--46  [Label = "0.12"]
56--76  [Label = "0.46"]
94--44  [Label = "0.53"]
81--50  [Label = "0.92"]
7--0  [Label = "0.61"]
35--75  [Label = "0.70"]
45--47  [Label = "0.67"]
31--51  [Label = "0.46"]
89--63  [Label = "0.45"]
84--2  [Label = "0.63"]
83--46  [Label = "0.69"]
90--61  [Label = "0.75"]
80--40  [Label = "0.68"]
28--9  [Label = "0.90"]
86--83  [Label = "0.27"]
26--25  [Label = "0.47"]
30--57  [Label = "0.91"]
26--6  [Label = "0.43"]
27--75  [Label = "0.65"]
97--41  [Label = "0.05"]
75--92  [Label = "0.96"]
70--54  [Label = "0.26"]
77--69  [Label = "0.42"]
11--25  [Label = "0.37"]
35--85  [Label = "0.19"]
64--48  [Label = "0.14"]
12--21  [Label = "0.02"]
46--26  [Label = "0.69"]
48--30  [Label = "0.14"]
94--70  [Label = "0.15"]
13--10  [Label = "0.37"]
70--57  [Label = "0.01"]
83--80  [Label = "0.75"]
46--79  [Label = "0.42"]
86--68  [Label = "0.28"]
57--9  [Label = "0.17"]
14--10  [Label = "0.03"]
19--56  [Label = "0.10"]
27--24  [Label = "0.48"]
92--46  [Label = "0.32"]
41--68  [Label = "0.76"]
91--73  [Label = "0.05"]
30--23  [Label = "0.87"]
70--27  [Label = "0.06"]
56--17  [Label = "0.03"]
74--92  [Label = "0.96"]
10--45  [Label = "0.81"]
80--24  [Label = "0.04"]
35--63  [Label = "0.83"]
49--67  [Label = "0.27"]
15--14  [Label = "0.75"]
78--70  [Label = "0.67"]
71--27  [Label = "0.95"]
10--34  [Label = "0.76"]
49--28  [Label = "0.57"]
62--94  [Label = "0.05"]
89--24  [Label = "0.50"]
12--9  [Label = "0.43"]
60--78  [Label = "0.78"]
64--49  [Label = "0.52"]
25--31  [Label = "0.03"]
40--15  [Label = "0.10"]
56--21  [Label = "0.04"]
15--54  [Label = "0.41"]
20--87  [Label = "0.49"]
9--81  [Label = "0.08"]
32--38  [Label = "0.86"]
76--18  [Label = "0.59"]
69--34  [Label = "0.70"]
25--2  [Label = "0.32"]
37--54  [Label = "0.28"]
61--66  [Label = "0.08"]
37--16  [Label = "0.68"]
77--7  [Label = "0.46"]
79--81  [Label = "0.48"]
62--79  [Label = "0.89"]
15--10  [Label = "0.39"]
60--83  [Label = "0.68"]
58--4  [Label = "0.04"]
63--66  [Label = "0.43"]
82--65  [Label = "0.00"]
54--88  [Label = "0.37"]
39--27  [Label = "0.94"]
31--38  [Label = "0.62"]
33--97  [Label = "0.14"]
10--72  [Label = "0.36"]
48--77  [Label = "0.69"]
54--6  [Label = "0.29"]
12--35  [Label = "0.21"]
45--28  [Label = "0.74"]
9--25  [Label = "0.42"]
55--98  [Label = "0.02"]
16--73  [Label = "0.62"]
56--75  [Label = "0.31"]
17--23  [Label = "0.50"]
59--26  [Label = "0.68"]
5--96  [Label = "0.16"]
71--29  [Label = "0.16"]
37--6  [Label = "0.79"]
34--64  [Label = "0.11"]
29--77  [Label = "0.10"]
42--80  [Label = "0.30"]
65--98  [Label = "0.29"]
33--41  [Label = "0.23"]
40--94  [Label = "0.11"]
55--7  [Label = "0.44"]
33--87  [Label = "0.14"]
55--89  [Label = "0.86"]
79--74  [Label = "0.18"]
97--12  [Label = "0.15"]
5--97  [Label = "0.45"]
75--71  [Label = "0.77"]
86--32  [Label = "0.18"]
37--88  [Label = "0.54"]
42--71  [Label = "0.85"]
91--41  [Label = "0.48"]
33--29  [Label = "0.37"]
45--38  [Label = "0.38"]
53--12  [Label = "0.49"]
66--18  [Label = "0.04"]
46--16  [Label = "0.99"]
13--39  [Label = "0.97"]
65--25  [Label = "0.90"]
77--59  [Label = "0.10"]
0--36  [Label = "0.30"]
89--45  [Label = "0.65"]
44--24  [Label = "0.98"]
46--40  [Label = "0.05"]
8--99  [Label = "0.87"]
50--20  [Label = "0.17"]
17--97  [Label = "0.41"]
68--82  [Label = "0.60"]
87--41  [Label = "0.01"]
26--94  [Label = "0.36"]
0--95  [Label = "0.54"]
39--34  [Label = "0.00"]
88--42  [Label = "0.96"]
57--29  [Label = "0.19"]
70--92  [Label = "0.47"]
62--60  [Label = "0.09"]
65--22  [Label = "0.93"]
84--97  [Label = "0.82"]
2--7  [Label = "0.21"]
39--36  [Label = "0.59"]
4--7  [Label = "0.70"]
34--13  [Label = "0.13"]
36--30  [Label = "1.00"]
17--43  [Label = "0.92"]
11--53  [Label = "0.66"]
80--52  [Label = "0.13"]
78--65  [Label = "0.28"]
35--23  [Label = "0.40"]
58--29  [Label = "0.70"]
98--8  [Label = "0.53"]
82--34  [Label = "0.64"]
9--62  [Label = "0.13"]
44--49  [Label = "0.17"]
76--45  [Label = "0.76"]
36--63  [Label = "0.41"]
50--70  [Label = "0.89"]
13--17  [Label = "0.40"]
31--18  [Label = "0.66"]
17--70  [Label = "0.11"]
97--50  [Label = "0.81"]
50--57  [Label = "0.22"]
54--74  [Label = "0.36"]
85--70  [Label = "0.89"]
34--14  [Label = "0.31"]
37--50  [Label = "0.96"]
0--77  [Label = "0.91"]
80--79  [Label = "0.08"]
78--8  [Label = "0.98"]
42--44  [Label = "0.51"]
0--62  [Label = "0.84"]
9--52  [Label = "0.11"]
57--95  [Label = "0.38"]
85--16  [Label = "0.77"]
25--8  [Label = "0.33"]
37--23  [Label = "0.62"]
58--32  [Label = "0.88"]
5--60  [Label = "0.30"]
44--7  [Label = "0.36"]
79--4  [Label = "0.58"]
44--1  [Label = "0.87"]
35--21  [Label = "0.12"]
42--76  [Label = "0.44"]
71--78  [Label = "0.33"]
17--20  [Label = "0.02"]
23--45  [Label = "0.48"]
39--1  [Label = "0.23"]
87--37  [Label = "0.66"]
35--48  [Label = "0.08"]
96--79  [Label = "0.57"]
40--76  [Label = "0.81"]
88--15  [Label = "0.88"]
11--7  [Label = "0.87"]
4--88  [Label = "0.40"]
93--23  [Label = "0.49"]
16--52  [Label = "0.29"]
93--45  [Label = "0.29"]
91--92  [Label = "0.95"]
22--41  [Label = "0.09"]
76--23  [Label = "0.12"]
99--51  [Label = "0.91"]
48--46  [Label = "0.34"]
56--70  [Label = "0.76"]
49--19  [Label = "0.81"]
88--92  [Label = "0.39"]
25--94  [Label = "0.50"]
44--36  [Label = "0.12"]
85--92  [Label = "0.04"]
33--44  [Label = "0.04"]
88--9  [Label = "0.69"]
64--61  [Label = "0.73"]
7--71  [Label = "0.70"]
58--84  [Label = "0.75"]
47--54  [Label = "0.07"]
82--75  [Label = "0.91"]
31--67  [Label = "0.33"]
12--31  [Label = "0.68"]
65--46  [Label = "0.65"]
4--10  [Label = "0.64"]
49--31  [Label = "0.82"]
89--52  [Label = "0.91"]
24--35  [Label = "0.83"]
2--21  [Label = "0.36"]
11--14  [Label = "0.55"]
90--0  [Label = "0.81"]
8--9  [Label = "0.18"]
91--59  [Label = "0.09"]
3--71  [Label = "0.93"]
73--5  [Label = "0.68"]
64--29  [Label = "0.52"]
2--58  [Label = "0.33"]
6--10  [Label = "0.58"]
91--15  [Label = "0.15"]
98--19  [Label = "0.27"]
74--30  [Label = "0.58"]
40--38  [Label = "0.87"]
38--4  [Label = "0.73"]
13--75  [Label = "0.02"]
87--96  [Label = "0.44"]
88--83  [Label = "0.75"]
83--92  [Label = "0.32"]
38--91  [Label = "0.36"]
7--49  [Label = "0.32"]
17--79  [Label = "0.31"]
92--17  [Label = "0.75"]
39--52  [Label = "0.41"]
64--45  [Label = "0.53"]
18--41  [Label = "0.47"]
75--17  [Label = "0.28"]
10--2  [Label = "0.60"]
38--25  [Label = "0.87"]
34--23  [Label = "0.84"]
91--17  [Label = "0.52"]
15--13  [Label = "0.04"]
38--99  [Label = "0.67"]
70--1  [Label = "0.51"]
23--5  [Label = "0.30"]
54--21  [Label = "0.42"]
89--85  [Label = "0.23"]
83--39  [Label = "0.75"]
79--90  [Label = "0.34"]
17--6  [Label = "0.62"]
96--50  [Label = "0.62"]
6--55  [Label = "0.86"]
43--34  [Label = "0.63"]
31--83  [Label = "0.99"]
84--12  [Label = "0.68"]
56--27  [Label = "0.16"]
64--10  [Label = "0.70"]
2--4  [Label = "0.86"]
99--10  [Label = "0.54"]
21--30  [Label = "0.87"]
56--46  [Label = "0.02"]
49--46  [Label = "0.01"]
34--6  [Label = "0.48"]
72--52  [Label = "0.60"]
83--64  [Label = "0.51"]
57--91  [Label = "0.45"]
28--21  [Label = "0.16"]
3--70  [Label = "0.84"]
52--70  [Label = "0.39"]
85--77  [Label = "0.75"]
66--4  [Label = "0.34"]
74--67  [Label = "0.52"]
85--29  [Label = "0.72"]
52--12  [Label = "0.19"]
87--97  [Label = "0.37"]
84--3  [Label = "0.78"]
72--8  [Label = "0.61"]
8--63  [Label = "0.84"]
36--27  [Label = "0.47"]
80--44  [Label = "0.30"]
69--40  [Label = "0.65"]
27--44  [Label = "0.59"]
61--43  [Label = "0.29"]
52--41  [Label = "0.67"]
24--8  [Label = "0.34"]
94--92  [Label = "0.41"]
76--19  [Label = "0.83"]
99--50  [Label = "0.51"]
59--96  [Label = "0.56"]
77--40  [Label = "0.21"]
71--86  [Label = "0.85"]
35--17  [Label = "0.74"]
33--91  [Label = "0.73"]
12--59  [Label = "0.95"]
48--44  [Label = "0.04"]
48--36  [Label = "0.58"]
12--2  [Label = "0.82"]
39--17  [Label = "0.67"]
88--74  [Label = "0.05"]
24--37  [Label = "0.09"]
80--43  [Label = "0.69"]
58--47  [Label = "0.99"]
66--36  [Label = "0.92"]
78--55  [Label = "0.75"]
79--78  [Label = "0.09"]
83--16  [Label = "0.73"]
34--40  [Label = "0.94"]
98--44  [Label = "0.74"]
68--91  [Label = "0.93"]
96--81  [Label = "0.10"]
34--37  [Label = "0.07"]
88--90  [Label = "0.92"]
0--70  [Label = "0.05"]
26--56  [Label = "0.67"]
30--54  [Label = "0.34"]
15--83  [Label = "0.86"]
85--98  [Label = "0.01"]
47--78  [Label = "0.72"]
49--86  [Label = "0.32"]
59--93  [Label = "0.46"]
6--0  [Label = "0.96"]
60--39  [Label = "0.06"]
70--34  [Label = "0.08"]
38--70  [Label = "0.97"]
31--41  [Label = "0.07"]
54--31  [Label = "0.27"]
75--22  [Label = "0.48"]
28--31  [Label = "0.94"]
29--72  [Label = "0.35"]
12--94  [Label = "0.91"]
3--99  [Label = "0.84"]
82--29  [Label = "0.87"]
68--98  [Label = "0.01"]
38--29  [Label = "0.11"]
61--41  [Label = "0.21"]
25--1  [Label = "0.53"]
66--31  [Label = "0.70"]
50--67  [Label = "0.54"]
49--1  [Label = "1.00"]
93--51  [Label = "0.48"]
49--99  [Label = "0.36"]
62--57  [Label = "0.71"]
47--51  [Label = "0.72"]
57--82  [Label = "0.24"]
28--17  [Label = "0.30"]
0--81  [Label = "0.72"]
29--9  [Label = "0.10"]
51--62  [Label = "0.07"]
42--13  [Label = "0.29"]
50--61  [Label = "0.75"]
17--33  [Label = "0.11"]
14--35  [Label = "0.92"]
85--43  [Label = "0.99"]
69--87  [Label = "0.95"]
42--8  [Label = "0.31"]
77--22  [Label = "0.72"]
34--54  [Label = "0.16"]
15--59  [Label = "0.18"]
97--72  [Label = "0.45"]
11--88  [Label = "0.12"]
30--5  [Label = "0.64"]
55--94  [Label = "0.19"]
62--54  [Label = "0.97"]
50--90  [Label = "0.34"]
9--49  [Label = "0.89"]
17--37  [Label = "0.35"]
46--41  [Label = "0.04"]
99--20  [Label = "0.66"]
58--99  [Label = "0.09"]
14--89  [Label = "0.07"]
34--98  [Label = "0.14"]
55--33  [Label = "0.89"]
80--63  [Label = "0.23"]
20--95  [Label = "0.19"]
96--60  [Label = "0.22"]
21--74  [Label = "0.09"]
90--82  [Label = "0.40"]
54--72  [Label = "0.01"]
41--54  [Label = "0.36"]
40--19  [Label = "0.64"]
10--44  [Label = "0.90"]
97--80  [Label = "0.86"]
56--66  [Label = "0.42"]
8--79  [Label = "0.90"]
25--5  [Label = "0.07"]
61--72  [Label = "0.72"]
69--12  [Label = "0.36"]
26--8  [Label = "0.77"]
61--5  [Label = "0.39"]
9--67  [Label = "0.60"]
69--96  [Label = "0.93"]
42--16  [Label = "0.72"]
79--29  [Label = "0.66"]
70--60  [Label = "0.98"]
80--98  [Label = "0.28"]
64--70  [Label = "0.22"]
39--84  [Label = "0.05"]
81--74  [Label = "0.62"]
52--66  [Label = "0.43"]
71--83  [Label = "0.98"]
89--82  [Label = "0.02"]
31--79  [Label = "0.03"]
85--42  [Label = "0.32"]
49--93  [Label = "0.09"]
14--67  [Label = "0.16"]
90--63  [Label = "0.15"]
71--88  [Label = "0.19"]
4--17  [Label = "0.25"]
95--91  [Label = "0.11"]
40--29  [Label = "0.02"]
28--61  [Label = "0.09"]
75--54  [Label = "0.88"]
59--76  [Label = "0.78"]
1--95  [Label = "0.05"]
8--59  [Label = "0.53"]
7--76  [Label = "0.51"]
81--85  [Label = "0.29"]
99--37  [Label = "0.64"]
37--79  [Label = "0.71"]
18--80  [Label = "0.10"]
5--22  [Label = "0.83"]
30--52  [Label = "0.95"]
23--38  [Label = "0.93"]
36--2  [Label = "0.89"]
10--71  [Label = "0.15"]
98--18  [Label = "0.38"]
73--58  [Label = "0.44"]
39--21  [Label = "0.38"]
49--76  [Label = "0.48"]
12--95  [Label = "0.67"]
39--4  [Label = "0.64"]
10--52  [Label = "0.75"]
23--82  [Label = "0.57"]
53--10  [Label = "0.49"]
72--80  [Label = "0.12"]
64--95  [Label = "0.68"]
77--73  [Label = "0.58"]
55--53  [Label = "0.92"]
81--72  [Label = "0.45"]
3--14  [Label = "0.02"]
64--91  [Label = "0.05"]
68--38  [Label = "0.13"]
49--16  [Label = "0.14"]
77--26  [Label = "0.46"]
91--52  [Label = "0.82"]
85--52  [Label = "0.95"]
96--73  [Label = "0.39"]
49--61  [Label = "0.63"]
97--46  [Label = "0.68"]
79--92  [Label = "0.45"]
66--1  [Label = "0.35"]
8--39  [Label = "0.67"]
97--88  [Label = "0.40"]
66--89  [Label = "0.81"]
14--40  [Label = "0.78"]
50--51  [Label = "0.20"]
84--70  [Label = "0.92"]
61--12  [Label = "0.72"]
46--82  [Label = "0.49"]
85--96  [Label = "0.40"]
95--52  [Label = "0.20"]
95--90  [Label = "0.33"]
70--33  [Label = "0.34"]
73--40  [Label = "0.34"]
11--50  [Label = "0.89"]
50--17  [Label = "0.05"]
49--56  [Label = "0.58"]
63--61  [Label = "0.91"]
0--2  [Label = "0.72"]
58--46  [Label = "0.92"]
64--26  [Label = "0.58"]
11--92  [Label = "0.47"]
82--79  [Label = "0.96"]
90--65  [Label = "0.79"]
12--46  [Label = "0.99"]
47--34  [Label = "0.90"]
84--85  [Label = "0.80"]
43--20  [Label = "0.88"]
57--38  [Label = "0.73"]
79--87  [Label = "0.29"]
84--90  [Label = "0.82"]
86--87  [Label = "0.58"]
25--48  [Label = "0.76"]
12--79  [Label = "0.83"]
46--29  [Label = "0.26"]
99--68  [Label = "0.15"]
94--46  [Label = "0.95"]
1--59  [Label = "0.81"]
49--24  [Label = "0.83"]
29--39  [Label = "0.45"]
72--94  [Label = "0.20"]
99--69  [Label = "0.29"]
92--68  [Label = "0.35"]
22--71  [Label = "0.48"]
97--1  [Label = "0.61"]
58--53  [Label = "0.11"]
73--98  [Label = "0.34"]
93--19  [Label = "0.16"]
59--33  [Label = "0.16"]
54--68  [Label = "0.16"]
22--3  [Label = "0.86"]
55--5  [Label = "0.99"]
62--72  [Label = "0.85"]
71--47  [Label = "0.34"]
74--41  [Label = "0.58"]
32--33  [Label = "0.45"]
31--89  [Label = "0.39"]
39--89  [Label = "0.00"]
6--27  [Label = "0.47"]
41--20  [Label = "0.46"]
70--68  [Label = "0.60"]
89--13  [Label = "0.62"]
96--24  [Label = "0.41"]
21--65  [Label = "0.95"]
60--66  [Label = "0.60"]
78--96  [Label = "0.83"]
9--37  [Label = "0.03"]
16--40  [Label = "0.13"]
87--3  [Label = "0.47"]
4--78  [Label = "0.50"]
11--55  [Label = "0.89"]
3--55  [Label = "0.98"]
36--72  [Label = "0.56"]
25--77  [Label = "0.80"]
31--17  [Label = "0.49"]
44--87  [Label = "0.11"]
92--2  [Label = "0.17"]
58--14  [Label = "0.90"]
21--24  [Label = "0.31"]
31--94  [Label = "0.29"]
23--54  [Label = "0.69"]
43--70  [Label = "0.09"]
57--86  [Label = "0.90"]
99--61  [Label = "0.76"]
21--63  [Label = "0.50"]
72--71  [Label = "0.58"]
59--36  [Label = "0.59"]
81--2  [Label = "0.07"]
88--82  [Label = "0.68"]
27--90  [Label = "0.84"]
85--75  [Label = "0.48"]
35--96  [Label = "0.15"]
51--73  [Label = "0.73"]
35--92  [Label = "0.11"]
44--82  [Label = "0.42"]
36--84  [Label = "0.66"]
44--77  [Label = "0.48"]
34--29  [Label = "0.83"]
77--8  [Label = "0.09"]
64--97  [Label = "0.47"]
49--20  [Label = "0.09"]
62--23  [Label = "0.76"]
54--67  [Label = "0.30"]
90--35  [Label = "0.37"]
0--61  [Label = "0.36"]
95--77  [Label = "0.50"]
74--64  [Label = "0.44"]
97--4  [Label = "0.85"]
69--51  [Label = "0.43"]
72--66  [Label = "0.17"]
16--88  [Label = "0.36"]
90--49  [Label = "0.95"]
82--31  [Label = "0.36"]
2--51  [Label = "0.35"]
50--64  [Label = "0.41"]
33--1  [Label = "0.74"]
3--47  [Label = "0.86"]
79--9  [Label = "0.39"]
64--63  [Label = "0.09"]
59--94  [Label = "0.73"]
25--50  [Label = "0.49"]
59--11  [Label = "0.72"]
72--98  [Label = "0.56"]
29--31  [Label = "0.04"]
90--73  [Label = "0.44"]
87--39  [Label = "0.70"]
15--48  [Label = "0.89"]
9--72  [Label = "0.02"]
40--92  [Label = "0.56"]
24--48  [Label = "0.74"]
13--60  [Label = "0.32"]
45--99  [Label = "0.23"]
64--52  [Label = "0.28"]
50--47  [Label = "0.35"]
29--83  [Label = "0.72"]
99--15  [Label = "0.34"]
77--18  [Label = "0.56"]
33--48  [Label = "0.44"]
95--48  [Label = "0.73"]
49--42  [Label = "0.01"]
56--9  [Label = "0.19"]
35--20  [Label = "0.08"]
62--78  [Label = "0.12"]
28--52  [Label = "0.34"]
28--12  [Label = "0.44"]
66--76  [Label = "0.82"]
62--31  [Label = "0.25"]
4--0  [Label = "0.31"]
44--5  [Label = "0.67"]
41--82  [Label = "1.00"]
63--25  [Label = "0.28"]
97--66  [Label = "0.95"]
79--67  [Label = "0.31"]
94--43  [Label = "0.12"]
0--13  [Label = "0.88"]
79--66  [Label = "0.26"]
78--6  [Label = "0.40"]
88--57  [Label = "0.34"]
66--59  [Label = "0.15"]
4--82  [Label = "0.31"]
72--17  [Label = "0.62"]
72--55  [Label = "0.25"]
95--65  [Label = "0.67"]
75--44  [Label = "1.00"]
30--89  [Label = "0.19"]
78--98  [Label = "0.24"]
41--83  [Label = "0.03"]
75--62  [Label = "0.37"]
88--10  [Label = "0.82"]
27--3  [Label = "0.02"]
45--88  [Label = "0.54"]
15--9  [Label = "0.39"]
37--96  [Label = "0.57"]
23--88  [Label = "0.06"]
38--55  [Label = "0.28"]
45--49  [Label = "0.44"]
76--5  [Label = "0.97"]
86--30  [Label = "0.28"]
27--64  [Label = "0.88"]
87--53  [Label = "0.70"]
99--40  [Label = "0.87"]
40--78  [Label = "0.75"]
98--52  [Label = "0.42"]
9--39  [Label = "0.45"]
49--32  [Label = "0.49"]
62--19  [Label = "0.41"]
25--59  [Label = "0.54"]
31--81  [Label = "0.07"]
70--49  [Label = "0.62"]
28--98  [Label = "0.47"]
85--91  [Label = "0.17"]
29--78  [Label = "0.95"]
63--18  [Label = "0.57"]
59--51  [Label = "0.16"]
18--72  [Label = "0.79"]
42--83  [Label = "0.59"]
69--24  [Label = "0.55"]
19--91  [Label = "0.59"]
79--89  [Label = "0.48"]
28--70  [Label = "0.56"]
40--24  [Label = "0.66"]
69--44  [Label = "0.25"]
5--98  [Label = "0.33"]
22--81  [Label = "0.96"]
43--16  [Label = "0.91"]
51--41  [Label = "0.98"]
60--73  [Label = "0.58"]
92--81  [Label = "0.90"]
85--0  [Label = "0.89"]
96--2  [Label = "0.20"]
19--95  [Label = "0.55"]
29--75  [Label = "0.63"]
19--4  [Label = "0.30"]
42--27  [Label = "0.94"]
41--66  [Label = "0.95"]
58--97  [Label = "0.86"]
67--56  [Label = "0.31"]
1--30  [Label = "0.06"]
69--65  [Label = "0.42"]
88--44  [Label = "0.15"]
64--53  [Label = "0.98"]
64--28  [Label = "0.66"]
62--39  [Label = "0.79"]
38--41  [Label = "0.59"]
35--1  [Label = "0.51"]
56--35  [Label = "0.83"]
30--20  [Label = "0.84"]
90--32  [Label = "0.58"]
21--1  [Label = "0.34"]
16--31  [Label = "0.06"]
58--16  [Label = "0.04"]
76--99  [Label = "0.96"]
69--41  [Label = "0.83"]
23--55  [Label = "0.90"]
94--53  [Label = "0.16"]
28--75  [Label = "0.61"]
92--41  [Label = "0.03"]
61--26  [Label = "0.30"]
68--43  [Label = "0.53"]
2--48  [Label = "0.25"]
80--56  [Label = "0.59"]
42--84  [Label = "0.24"]
69--30  [Label = "0.12"]
95--22  [Label = "0.38"]
69--66  [Label = "0.24"]
89--5  [Label = "0.83"]
9--36  [Label = "0.36"]
70--71  [Label = "0.59"]
78--61  [Label = "1.00"]
58--83  [Label = "0.66"]
55--64  [Label = "0.04"]
61--3  [Label = "0.19"]
75--20  [Label = "0.86"]
4--33  [Label = "0.84"]
2--56  [Label = "0.71"]
7--72  [Label = "0.87"]
35--19  [Label = "0.72"]
93--17  [Label = "0.59"]
88--24  [Label = "0.31"]
13--18  [Label = "0.20"]
40--63  [Label = "0.16"]
43--66  [Label = "0.93"]
74--89  [Label = "0.94"]
87--32  [Label = "0.47"]
89--35  [Label = "0.37"]
71--44  [Label = "0.00"]
94--41  [Label = "0.88"]
84--77  [Label = "0.91"]
35--82  [Label = "0.30"]
56--58  [Label = "0.07"]
21--15  [Label = "0.13"]
22--8  [Label = "0.55"]
88--12  [Label = "0.43"]
15--71  [Label = "0.59"]
39--66  [Label = "0.18"]
10--51  [Label = "0.92"]
72--25  [Label = "0.90"]
13--14  [Label = "0.80"]
16--23  [Label = "0.42"]
78--34  [Label = "0.97"]
99--0  [Label = "0.04"]
64--38  [Label = "0.57"]
46--45  [Label = "0.55"]
60--48  [Label = "0.69"]
93--56  [Label = "0.65"]
6--3  [Label = "0.68"]
55--15  [Label = "0.48"]
95--4  [Label = "0.56"]
7--96  [Label = "0.76"]
39--14  [Label = "0.84"]
19--53  [Label = "0.17"]
60--7  [Label = "0.84"]
44--20  [Label = "0.27"]
61--70  [Label = "0.70"]
13--36  [Label = "0.78"]
8--31  [Label = "0.51"]
60--12  [Label = "0.05"]
65--97  [Label = "0.80"]
2--88  [Label = "0.25"]
4--67  [Label = "0.53"]
75--41  [Label = "0.62"]
93--78  [Label = "0.21"]
9--35  [Label = "0.27"]
5--40  [Label = "0.65"]
44--51  [Label = "0.16"]
32--25  [Label = "0.63"]
86--47  [Label = "0.16"]
44--78  [Label = "0.49"]
80--5  [Label = "0.29"]
82--67  [Label = "0.33"]
11--94  [Label = "0.43"]
38--69  [Label = "0.30"]
34--26  [Label = "0.92"]
54--92  [Label = "0.48"]
86--62  [Label = "0.72"]
29--95  [Label = "0.34"]
28--84  [Label = "0.36"]
27--63  [Label = "0.25"]
39--79  [Label = "0.76"]
41--84  [Label = "0.43"]
90--1  [Label = "0.92"]
95--99  [Label = "0.77"]
42--32  [Label = "0.79"]
74--43  [Label = "0.75"]
66--62  [Label = "0.58"]
97--61  [Label = "0.60"]
63--24  [Label = "0.26"]
49--36  [Label = "0.19"]
66--7  [Label = "0.27"]
71--96  [Label = "0.97"]
59--47  [Label = "0.76"]
18--3  [Label = "0.43"]
21--33  [Label = "0.05"]
45--48  [Label = "0.60"]
50--39  [Label = "0.48"]
24--32  [Label = "0.85"]
52--19  [Label = "0.64"]
13--85  [Label = "0.78"]
59--4  [Label = "0.69"]
67--80  [Label = "0.73"]
94--78  [Label = "0.78"]
65--50  [Label = "0.91"]
39--51  [Label = "0.78"]
50--41  [Label = "0.72"]
29--56  [Label = "0.31"]
66--2  [Label = "0.85"]
97--25  [Label = "0.73"]
35--94  [Label = "0.20"]
42--98  [Label = "0.35"]
33--78  [Label = "0.38"]
35--36  [Label = "0.06"]
88--41  [Label = "0.85"]
5--70  [Label = "0.29"]
86--34  [Label = "0.27"]
16--94  [Label = "0.23"]
17--51  [Label = "0.80"]
96--93  [Label = "0.93"]
22--30  [Label = "0.10"]
2--37  [Label = "0.88"]
85--55  [Label = "0.95"]
22--96  [Label = "0.23"]
78--57  [Label = "0.65"]
98--23  [Label = "0.81"]
7--27  [Label = "0.66"]
97--40  [Label = "0.41"]
9--84  [Label = "0.74"]
61--37  [Label = "0.09"]
52--93  [Label = "0.95"]
64--62  [Label = "0.26"]
86--88  [Label = "0.25"]
59--58  [Label = "0.72"]
76--0  [Label = "0.18"]
78--30  [Label = "0.14"]
65--23  [Label = "0.87"]
24--18  [Label = "0.33"]
63--95  [Label = "0.36"]
80--54  [Label = "0.63"]
41--63  [Label = "0.97"]
29--73  [Label = "0.68"]
10--25  [Label = "0.90"]
25--46  [Label = "0.18"]
95--21  [Label = "0.48"]
20--51  [Label = "0.41"]
85--11  [Label = "0.96"]
57--0  [Label = "0.62"]
95--82  [Label = "0.91"]
98--64  [Label = "0.43"]
42--94  [Label = "0.61"]
28--97  [Label = "0.32"]
73--97  [Label = "0.84"]
33--93  [Label = "0.72"]
59--99  [Label = "0.52"]
72--42  [Label = "0.97"]
88--68  [Label = "0.83"]
45--18  [Label = "0.55"]
15--78  [Label = "0.40"]
96--45  [Label = "0.35"]
81--66  [Label = "0.04"]
2--1  [Label = "0.73"]
20--65  [Label = "0.53"]
2--86  [Label = "0.88"]
40--58  [Label = "0.72"]
30--6  [Label = "0.92"]
11--18  [Label = "0.66"]
36--70  [Label = "0.31"]
15--36  [Label = "0.92"]
88--70  [Label = "0.49"]
47--91  [Label = "0.53"]
20--48  [Label = "0.05"]
84--27  [Label = "0.67"]
67--71  [Label = "0.34"]
49--71  [Label = "0.08"]
58--0  [Label = "0.85"]
90--98  [Label = "0.86"]
29--0  [Label = "0.26"]
71--90  [Label = "0.02"]
84--65  [Label = "0.71"]
8--27  [Label = "0.17"]
35--74  [Label = "0.27"]
93--82  [Label = "0.30"]
48--87  [Label = "0.76"]
8--70  [Label = "0.16"]
6--98  [Label = "0.59"]
79--16  [Label = "0.70"]
14--63  [Label = "0.03"]
37--75  [Label = "0.38"]
84--34  [Label = "0.12"]
24--9  [Label = "0.22"]
51--26  [Label = "0.59"]
45--51  [Label = "0.98"]
76--57  [Label = "0.46"]
49--73  [Label = "0.32"]
22--69  [Label = "0.59"]
38--67  [Label = "0.57"]
99--81  [Label = "0.18"]
61--84  [Label = "0.12"]
45--81  [Label = "0.46"]
70--55  [Label = "0.55"]
18--23  [Label = "0.49"]
31--47  [Label = "0.22"]
50--62  [Label = "0.87"]
19--68  [Label = "0.42"]
12--87  [Label = "0.74"]
48--41  [Label = "0.83"]
0--30  [Label = "0.32"]
33--84  [Label = "0.82"]
35--65  [Label = "0.88"]
23--7  [Label = "0.43"]
30--92  [Label = "0.87"]
53--80  [Label = "0.85"]
6--82  [Label = "0.68"]
84--87  [Label = "0.07"]
68--14  [Label = "0.48"]
38--71  [Label = "0.13"]
96--58  [Label = "0.09"]
95--2  [Label = "0.27"]
53--62  [Label = "0.80"]
75--43  [Label = "0.51"]
12--19  [Label = "0.22"]
94--77  [Label = "0.51"]
14--92  [Label = "0.19"]
20--92  [Label = "1.00"]
50--52  [Label = "0.93"]
43--84  [Label = "0.33"]
29--76  [Label = "0.61"]
56--52  [Label = "0.33"]
24--65  [Label = "0.72"]
45--50  [Label = "0.39"]
72--59  [Label = "0.12"]
4--32  [Label = "0.34"]
49--54  [Label = "0.95"]
31--26  [Label = "0.46"]
57--8  [Label = "0.60"]
77--87  [Label = "0.64"]
58--22  [Label = "0.43"]
17--21  [Label = "0.74"]
52--51  [Label = "0.75"]
71--93  [Label = "0.52"]
52--18  [Label = "0.87"]
26--9  [Label = "0.36"]
82--36  [Label = "0.32"]
28--5  [Label = "0.08"]
86--36  [Label = "1.00"]
86--29  [Label = "0.81"]
83--93  [Label = "0.45"]
63--38  [Label = "0.60"]
92--13  [Label = "0.82"]
47--44  [Label = "0.93"]
84--30  [Label = "0.69"]
59--14  [Label = "0.48"]
67--39  [Label = "0.75"]
51--8  [Label = "0.29"]
57--63  [Label = "0.12"]
86--16  [Label = "0.28"]
39--26  [Label = "0.05"]
53--9  [Label = "0.94"]
36--74  [Label = "0.59"]
82--98  [Label = "0.33"]
62--55  [Label = "0.26"]
87--16  [Label = "0.84"]
87--10  [Label = "0.33"]
29--74  [Label = "0.66"]
97--77  [Label = "0.60"]
80--32  [Label = "0.82"]
23--99  [Label = "0.36"]
9--32  [Label = "0.40"]
13--82  [Label = "0.22"]
69--84  [Label = "0.80"]
36--5  [Label = "0.13"]
12--83  [Label = "0.94"]
79--22  [Label = "0.27"]
76--38  [Label = "0.55"]
41--29  [Label = "0.20"]
69--21  [Label = "0.62"]
11--4  [Label = "0.38"]
7--52  [Label = "0.39"]
13--31  [Label = "0.08"]
77--56  [Label = "0.42"]
11--23  [Label = "0.70"]
84--46  [Label = "0.12"]
}
